…
1.3 Filter gapminder to all entries that have experienced a drop in life expectancy. Be sure to include a new variable that’s the increase in life expectancy in your tibble. Hint: you might find the lag() or diff() functions useful.

```r
gapminder %>% 
  mutate(lifeExp_inc = lifeExp - lag(lifeExp)) %>% 
  filter(lifeExp_inc < 0, year !=1952) %>% 
  arrange(country, year)
```

```
## # A tibble: 102 x 7
##    country  continent  year lifeExp     pop gdpPercap lifeExp_inc
##    <fct>    <fct>     <int>   <dbl>   <int>     <dbl>       <dbl>
##  1 Albania  Europe     1992    71.6 3326498     2497.      -0.419
##  2 Angola   Africa     1987    39.9 7874230     2430.      -0.036
##  3 Benin    Africa     2002    54.4 7026113     1373.      -0.371
##  4 Botswana Africa     1992    62.7 1342614     7954.      -0.877
##  5 Botswana Africa     1997    52.6 1536536     8647.     -10.2  
##  6 Botswana Africa     2002    46.6 1630347    11004.      -5.92 
##  7 Bulgaria Europe     1977    70.8 8797022     7612.      -0.09 
##  8 Bulgaria Europe     1992    71.2 8658506     6303.      -0.15 
##  9 Bulgaria Europe     1997    70.3 8066057     5970.      -0.87 
## 10 Burundi  Africa     1992    44.7 5809236      632.      -3.48 
## # … with 92 more rows
```
…
Filter gapminder so that it shows the max GDP per capita experienced by each country. Hint: you might find the max() function useful here.

OR

Filter gapminder to contain six rows: the rows with the three largest GDP per capita, and the rows with the three smallest GDP per capita. Be sure to not create any intermediate objects when doing this (with, for example, the assignment operator). Hint: you might find the sort() function useful, or perhaps even the dplyr::slice() function.

```r
gapminder %>% 
  group_by(country) %>% 
  summarize(max_GDP = max(gdpPercap))
```

```
## # A tibble: 142 x 2
##    country     max_GDP
##    <fct>         <dbl>
##  1 Afghanistan    978.
##  2 Albania       5937.
##  3 Algeria       6223.
##  4 Angola        5523.
##  5 Argentina    12779.
##  6 Australia    34435.
##  7 Austria      36126.
##  8 Bahrain      29796.
##  9 Bangladesh    1391.
## 10 Belgium      33693.
## # … with 132 more rows
```
…
```r
gapminder %>%
  group_by(country) %>% 
  filter(continent =="Americas") %>% 
  summarize()
```

```
## # A tibble: 25 x 1
##    country           
##    <fct>             
##  1 Argentina         
##  2 Bolivia           
##  3 Brazil            
##  4 Canada            
##  5 Chile             
##  6 Colombia          
##  7 Costa Rica        
##  8 Cuba              
##  9 Dominican Republic
## 10 Ecuador           
## # … with 15 more rows
```
…
```r
gapminder %>%
  group_by(continent, year) %>% 
  summarize(min_life=min(lifeExp),
            max_life=max(lifeExp),
            range_life=max_life - min_life)
```

```
## # A tibble: 60 x 5
## # Groups:   continent [5]
##    continent  year min_life max_life range_life
##    <fct>     <int>    <dbl>    <dbl>      <dbl>
##  1 Africa     1952     30       52.7       22.7
##  2 Africa     1957     31.6     58.1       26.5
##  3 Africa     1962     32.8     60.2       27.5
##  4 Africa     1967     34.1     61.6       27.4
##  5 Africa     1972     35.4     64.3       28.9
##  6 Africa     1977     36.8     67.1       30.3
##  7 Africa     1982     38.4     69.9       31.4
##  8 Africa     1987     39.9     71.9       32.0
##  9 Africa     1992     23.6     73.6       50.0
## 10 Africa     1997     36.1     74.8       38.7
## # … with 50 more rows
```
…
```r
gapminder %>%
filter(country == "Rwanda" | country == "Afghanistan")
```

```
## # A tibble: 24 x 6
##    country     continent  year lifeExp      pop gdpPercap
##    <fct>       <fct>     <int>   <dbl>    <int>     <dbl>
##  1 Afghanistan Asia       1952    28.8  8425333      779.
##  2 Afghanistan Asia       1957    30.3  9240934      821.
##  3 Afghanistan Asia       1962    32.0 10267083      853.
##  4 Afghanistan Asia       1967    34.0 11537966      836.
##  5 Afghanistan Asia       1972    36.1 13079460      740.
##  6 Afghanistan Asia       1977    38.4 14880372      786.
##  7 Afghanistan Asia       1982    39.9 12881816      978.
##  8 Afghanistan Asia       1987    40.8 13867957      852.
##  9 Afghanistan Asia       1992    41.7 16317921      649.
## 10 Afghanistan Asia       1997    41.8 22227415      635.
## # … with 14 more rows
```
…
